<?xml version="1.0" encoding="UTF-8"?>
<svg width="56px" height="69px" viewBox="0 0 56 69" version="1.1" xmlns="http://www.w3.org/2000/svg" xmlns:xlink="http://www.w3.org/1999/xlink">
    <!-- Generator: Sketch 49.1 (51147) - http://www.bohemiancoding.com/sketch -->
    <title>Page 1</title>
    <desc>Created with Sketch.</desc>
    <defs></defs>
    <g id="Symbols" stroke="none" stroke-width="1" fill="none" fill-rule="evenodd">
        <g id="FAQ-Contenuti" transform="translate(-431.000000, -2565.000000)">
            <g id="Page-1" transform="translate(431.000000, 2565.000000)">
                <path d="M3,65.5 L53,65.5 L48,36.75 C48,36.75 45.555,26.75 33,26.75 L23,26.75 C10.416,26.807 8,36.75 8,36.75 L3,65.5 Z" id="Fill-1" fill="#FCEA10"></path>
                <path d="M3,65.5 L53,65.5 L48,36.75 C48,36.75 45.555,26.75 33,26.75 L23,26.75 C10.416,26.807 8,36.75 8,36.75 L3,65.5 Z" id="Stroke-3" stroke="#000000"></path>
                <path d="M28.0005,0.5 C34.9045,0.5 40.5005,6.656 40.5005,14.251 C40.5005,21.845 34.9045,28 28.0005,28 C21.0975,28 15.5005,21.845 15.5005,14.251 C15.5005,6.656 21.0975,0.5 28.0005,0.5" id="Fill-5" fill="#FCEA10"></path>
                <path d="M28.0005,0.5 C34.9045,0.5 40.5005,6.656 40.5005,14.251 C40.5005,21.845 34.9045,28 28.0005,28 C21.0975,28 15.5005,21.845 15.5005,14.251 C15.5005,6.656 21.0975,0.5 28.0005,0.5 Z" id="Stroke-7" stroke="#000000"></path>
                <path d="M56,65.5 C56,63.843 54.657,62.5 53,62.5 C51.343,62.5 50,63.843 50,65.5 C50,67.157 51.343,68.5 53,68.5 C54.657,68.5 56,67.157 56,65.5" id="Fill-9" fill="#000000"></path>
                <path d="M6,65.5 C6,63.843 4.657,62.5 3,62.5 C1.343,62.5 0,63.843 0,65.5 C0,67.157 1.343,68.5 3,68.5 C4.657,68.5 6,67.157 6,65.5" id="Fill-11" fill="#000000"></path>
                <path d="M31,26.75 C31,25.093 29.657,23.75 28,23.75 C26.343,23.75 25,25.093 25,26.75 C25,28.407 26.343,29.75 28,29.75 C29.657,29.75 31,28.407 31,26.75" id="Fill-13" fill="#000000"></path>
            </g>
        </g>
    </g>
</svg>