<?xml version="1.0" encoding="UTF-8"?>
<svg width="204px" height="121px" viewBox="0 0 204 121" version="1.1" xmlns="http://www.w3.org/2000/svg" xmlns:xlink="http://www.w3.org/1999/xlink">
    <!-- Generator: Sketch 49.1 (51147) - http://www.bohemiancoding.com/sketch -->
    <title>Page 1</title>
    <desc>Created with Sketch.</desc>
    <defs></defs>
    <g id="Symbols" stroke="none" stroke-width="1" fill="none" fill-rule="evenodd">
        <g id="Page-Contenuti" transform="translate(-305.000000, -980.000000)">
            <g id="Page-1" transform="translate(305.000000, 980.000000)">
                <polygon id="Fill-1" fill="#FCEA10" points="154 25.25 50 3 98.7912014 92"></polygon>
                <g id="Group-8" fill="#1D1D1B">
                    <path d="M24.5299145,13.2502971 C24.5299145,5.89544 19.4837607,0.353154286 12.2649573,0.353154286 C5.04615385,0.353154286 0,5.89544 0,13.2502971 C0,20.6051543 5.04615385,26.14744 12.2649573,26.14744 C14.4376068,26.14744 16.4,25.65944 18.0820513,24.7531543 L20.3598291,27.2280114 L24.5299145,27.2280114 L20.5700855,22.97544 C23.0581197,20.6400114 24.5299145,17.2240114 24.5299145,13.2502971 Z M12.2649573,22.9057257 C6.9034188,22.9057257 3.53931624,18.7577257 3.53931624,13.2502971 C3.53931624,7.74286857 6.9034188,3.59486857 12.2649573,3.59486857 C17.6264957,3.59486857 20.9905983,7.74286857 20.9905983,13.2502971 C20.9905983,16.2131543 20.0094017,18.7925829 18.2923077,20.53544 L14.4726496,16.4222971 L10.3726496,16.4222971 L15.734188,22.24344 C14.7179487,22.6617257 13.5615385,22.9057257 12.2649573,22.9057257 Z M40.1940171,8.02172571 L40.1940171,17.11944 C40.1940171,20.9537257 38.5820513,23.1845829 35.708547,23.1845829 C33.0452991,23.1845829 31.6435897,21.5811543 31.6435897,18.3045829 L31.6435897,8.02172571 L28.4196581,8.02172571 L28.4196581,19.1411543 C28.4196581,23.4982971 30.8376068,25.90344 34.7273504,25.90344 C37.2854701,25.90344 39.1777778,24.6485829 40.1940171,22.2085829 L40.1940171,25.4502971 L43.4179487,25.4502971 L43.4179487,8.02172571 L40.1940171,8.02172571 Z M50.3564103,4.81486857 C51.5478632,4.81486857 52.4589744,3.87372571 52.4589744,2.72344 C52.4589744,1.57315429 51.5478632,0.701725714 50.3564103,0.701725714 C49.1649573,0.701725714 48.2188034,1.57315429 48.2188034,2.72344 C48.2188034,3.87372571 49.1649573,4.81486857 50.3564103,4.81486857 Z M48.7444444,25.4502971 L51.9683761,25.4502971 L51.9683761,8.02172571 L48.7444444,8.02172571 L48.7444444,25.4502971 Z" id="Fill-2"></path>
                    <path d="M128.365393,29.73058 C125.176504,29.73058 123.214111,31.68258 122.232915,33.8437229 L122.232915,30.2534371 L119.008983,30.2534371 L119.008983,54.3048657 L122.232915,54.3048657 L122.232915,44.8237229 C123.284197,46.8802943 125.386761,48.2048657 127.979923,48.2048657 C132.290179,48.2048657 136.004709,44.4751514 136.004709,38.8282943 C136.004709,33.7042943 132.920949,29.73058 128.365393,29.73058 Z M127.314111,45.3117229 C124.055137,45.3117229 122.162829,42.6974371 122.162829,39.1071514 C122.162829,35.3774371 124.195308,32.6934371 127.454282,32.6934371 C130.643171,32.6934371 132.710692,35.3077229 132.710692,38.9677229 C132.710692,42.66258 130.573085,45.3117229 127.314111,45.3117229 Z M147.463684,29.9397229 C145.606419,29.9397229 144.064538,31.2642943 143.258556,33.7042943 L143.258556,30.2534371 L140.034624,30.2534371 L140.034624,47.6820086 L143.258556,47.6820086 L143.258556,38.3402943 C143.293598,34.9591514 144.870521,33.0071514 146.973085,33.0071514 C148.024368,33.0071514 148.935479,33.2511514 149.776504,33.8437229 L149.776504,30.7762943 C149.07565,30.1837229 148.339752,29.9397229 147.463684,29.9397229 Z M154.647444,27.04658 C155.838897,27.04658 156.750009,26.1054371 156.750009,24.9551514 C156.750009,23.8048657 155.838897,22.9334371 154.647444,22.9334371 C153.455991,22.9334371 152.509838,23.8048657 152.509838,24.9551514 C152.509838,26.1054371 153.455991,27.04658 154.647444,27.04658 Z M153.035479,47.6820086 L156.25941,47.6820086 L156.25941,30.2534371 L153.035479,30.2534371 L153.035479,47.6820086 Z M179.773085,29.73058 C177.355137,29.73058 175.567957,31.0202943 174.621803,33.0768657 C173.780778,30.9854371 172.028641,29.73058 169.750863,29.73058 C167.438043,29.73058 165.755991,30.95058 164.809838,33.1814371 L164.809838,30.2534371 L161.585906,30.2534371 L161.585906,47.6820086 L164.809838,47.6820086 L164.809838,37.05058 C164.84488,34.4362943 166.421803,32.5540086 168.524368,32.5540086 C170.661974,32.5540086 171.923513,33.9134371 171.923513,36.4231514 L171.923513,47.6820086 L175.112402,47.6820086 L175.112402,36.4231514 C175.147444,34.1574371 176.724368,32.5540086 178.897017,32.5540086 C181.069667,32.5540086 182.226077,33.9134371 182.226077,36.7368657 L182.226077,47.6820086 L185.450009,47.6820086 L185.450009,36.2837229 C185.450009,32.2402943 183.347444,29.73058 179.773085,29.73058 Z M196.171333,29.73058 C193.650009,29.73058 191.757701,30.6020086 190.284154,31.7174371 L190.284154,34.9940086 C191.757701,33.4602943 193.614966,32.6237229 195.715778,32.6237229 C198.554239,32.6237229 200.413256,34.36658 200.413256,37.4340086 L200.413256,38.9677229 C199.570479,37.7128657 197.958513,36.7717229 195.715778,36.7717229 C191.931162,36.7717229 189.338,39.1071514 189.338,42.4534371 C189.338,45.7300086 191.897872,48.2048657 195.435436,48.2048657 C197.785051,48.2048657 199.537188,47.1242943 200.413256,45.34658 L200.413256,47.6820086 L203.600393,47.6820086 L203.600393,37.0854371 C203.600393,32.4494371 200.763684,29.73058 196.171333,29.73058 Z M196.48847,45.6254371 C194.000436,45.6254371 192.633769,44.3357229 192.633769,42.3488657 C192.633769,40.3968657 194.035479,39.1420086 196.523513,39.1420086 C198.939709,39.1420086 200.413256,40.46658 200.413256,42.2791514 C200.413256,44.1962943 198.906419,45.6254371 196.48847,45.6254371 Z" id="Fill-4"></path>
                    <path d="M43.5581197,103.92 C43.5581197,99.1445714 40.5444444,96.4257143 36.0589744,96.4257143 C30.557265,96.4257143 27.4735043,100.294857 27.4735043,105.558286 C27.4735043,111.274857 31.2230769,114.9 36.8649573,114.9 C39.3179487,114.9 41.5957265,114.133143 42.9273504,113.087429 L42.9273504,110.02 C41.5606838,111.170286 39.3529915,111.937143 37.2504274,111.937143 C33.5008547,111.937143 31.1529915,109.915429 30.8726496,106.220571 L43.5581197,106.220571 L43.5581197,103.92 Z M35.9538462,99.3188571 C38.617094,99.3188571 40.4042735,100.887429 40.4393162,103.850286 L30.942735,103.850286 C31.3982906,101.131429 32.9752137,99.3188571 35.9538462,99.3188571 Z M65.9504274,96.4257143 C62.7615385,96.4257143 60.7991453,98.3777143 59.8179487,100.538857 L59.8179487,96.9485714 L56.5940171,96.9485714 L56.5940171,121 L59.8179487,121 L59.8179487,111.518857 C60.8692308,113.575429 62.9717949,114.9 65.5649573,114.9 C69.8752137,114.9 73.5897436,111.170286 73.5897436,105.523429 C73.5897436,100.399429 70.5059829,96.4257143 65.9504274,96.4257143 Z M64.8991453,112.006857 C61.6401709,112.006857 59.7478632,109.392571 59.7478632,105.802286 C59.7478632,102.072571 61.7803419,99.3885714 65.0393162,99.3885714 C68.2282051,99.3885714 70.2957265,102.002857 70.2957265,105.662857 C70.2957265,109.357714 68.1581197,112.006857 64.8991453,112.006857 Z M84.9435897,114.9 C90.2350427,114.9 93.5290598,110.891429 93.5290598,105.662857 C93.5290598,100.434286 90.2350427,96.4257143 84.9435897,96.4257143 C79.7222222,96.4257143 76.4282051,100.434286 76.4282051,105.662857 C76.4282051,110.891429 79.7222222,114.9 84.9435897,114.9 Z M84.9435897,111.972 C81.6495726,111.972 79.7222222,109.357714 79.7222222,105.662857 C79.7222222,101.968 81.6495726,99.3537143 84.9435897,99.3537143 C88.2726496,99.3537143 90.2350427,101.968 90.2350427,105.662857 C90.2350427,109.357714 88.2726496,111.972 84.9435897,111.972 Z M99.2760684,93.7417143 C100.467521,93.7417143 101.378632,92.8005714 101.378632,91.6502857 C101.378632,90.5 100.467521,89.6285714 99.2760684,89.6285714 C98.0846154,89.6285714 97.1384615,90.5 97.1384615,91.6502857 C97.1384615,92.8005714 98.0846154,93.7417143 99.2760684,93.7417143 Z M97.6641026,114.377143 L100.888034,114.377143 L100.888034,96.9485714 L97.6641026,96.9485714 L97.6641026,114.377143 Z" id="Fill-6"></path>
                </g>
            </g>
        </g>
    </g>
</svg>